eqtl_spatial.R
…
## # A tibble: 80 x 3
##    table1                p_eqtl out             
##    <chr>                  <dbl> <list>          
##  1 aging_down_mRNA 0.0000000001 <named list [2]>
##  2 aging_down_mRNA 0.000000001  <named list [2]>
##  3 aging_down_mRNA 0.00000001   <named list [2]>
##  4 aging_down_mRNA 0.0000001    <named list [2]>
##  5 aging_down_mRNA 0.000001     <named list [2]>
##  6 aging_down_mRNA 0.00001      <named list [2]>
##  7 aging_down_mRNA 0.0001       <named list [2]>
##  8 aging_down_mRNA 0.001        <named list [2]>
##  9 aging_down_mRNA 0.01         <named list [2]>
## 10 aging_down_mRNA 0.05         <named list [2]>
## #  with 70 more rows
